…
# tabular check 
merged_df |> 
  group_by(avg_temp) |> 
  summarize(
    avg_count = mean(wnv_cases), 
    variance = var(wnv_cases)
  ) |> 
  arrange(desc(avg_count))

## # A tibble: 25 × 3
##    avg_temp avg_count variance
##       <dbl>     <dbl>    <dbl>
##  1     55.9       9.4    201. 
##  2     56.7       8.4     11.3
##  3     57.5       8.2     10.2
##  4     56.1       7.6     46.3
##  5     55.6       7.2     41.7
##  6     56.1       7.2     20.7
##  7     53.2       6.4     10.3
##  8     57.2       6.4      8.3
##  9     55.9       5.8     20.2
## 10     56.6       4.2     18.2
## # ℹ 15 more rows
…
