…
``` r
cases_by_zcta_shp |> 
   filter(year == 2024) |> 
   arrange(desc(count))
```

    ## # A tibble: 299 × 15
    ##    zip_code  year count borough neighborhood zcta5ce20 geoid20 classfp20 mtfcc20
    ##       <dbl> <dbl> <dbl> <chr>   <chr>        <chr>     <chr>   <chr>     <chr>  
    ##  1    10314  2024    23 Staten… Mid-Island   10314     10314   B5        G6350  
    ##  2    10465  2024    13 Bronx   Southeast B… 10465     10465   B5        G6350  
    ##  3    10301  2024    10 Staten… Stapleton a… 10301     10301   B5        G6350  
    ##  4    10305  2024    10 Staten… Stapleton a… 10305     10305   B5        G6350  
    ##  5    10306  2024    10 Staten… South Shore  10306     10306   B5        G6350  
    ##  6    10307  2024    10 Staten… South Shore  10307     10307   B5        G6350  
    ##  7    10309  2024    10 Staten… South Shore  10309     10309   B5        G6350  
    ##  8    10310  2024    10 Staten… Port Richmo… 10310     10310   B5        G6350  
    ##  9    10312  2024    10 Staten… South Shore  10312     10312   B5        G6350  
    ## 10    10471  2024    10 Bronx   Kingsbridge… 10471     10471   B5        G6350  
    ## # ℹ 289 more rows
    ## # ℹ 6 more variables: funcstat20 <chr>, aland20 <dbl>, awater20 <dbl>,
    ## #   intptlat20 <chr>, intptlon20 <chr>, geometry <MULTIPOLYGON [°]>
