regression_models
…
## `summarise()` has grouped output by 'year'. You can override using the
## `.groups` argument.

wnv_mosquitoes |>
  mutate(
    year = lubridate::year(date),
    week = lubridate::week(date)) |>
  group_by(year, week) |>
  summarise(count = n()) |>
  mutate(weekyear = (year - 2021)*52 + week) 

## `summarise()` has grouped output by 'year'. You can override using the
## `.groups` argument.

## # A tibble: 64 × 4
## # Groups:   year [4]
##     year  week count weekyear
##    <dbl> <dbl> <int>    <dbl>
##  1  2021    25     4       25
##  2  2021    27    24       27
##  3  2021    28    31       28
##  4  2021    30    47       30
##  5  2021    31    60       31
##  6  2021    32   152       32
##  7  2021    33    77       33
##  8  2021    35   144       35
##  9  2021    37    95       37
## 10  2021    38    35       38
## # ℹ 54 more rows
…
